{
  "success" : true,
  "message" : "",
  "data": {
    "log": "",
    "page": 425,
    "pages": 425,
    "total": 425,
    "pagination": "",
    "results": [
      {
        "id": "5c41a96958e72726bd367d19",
        "name": "Mclaughlin Madden",
        "points_earned": 862,
        "points_spent": 4556,
        "registration_date": "2014-01-13"
      },
      {
        "id": "5c41a96954d75b8175170c47",
        "name": "Judy Irwin",
        "points_earned": 4711,
        "points_spent": 1402,
        "registration_date": "2014-05-13"
      }
    ]
  }
}
